$sigma
   Scenario Method True value     Bias     RMSE        BR       SD      LCI
L         4    $L$        100 8.986359 32.97497 0.2832413 34.40157 122.7997
CL        4  $L^c$        100 5.990318 32.25904 0.1889811 39.91995 139.0144
      CP
L  0.916
CL 0.936

$phi
   Scenario Method True value         Bias        RMSE         BR          SD
L         4    $L$        0.9 0.0003554670 0.005884293 0.06052000 0.006409847
CL        4  $L^c$        0.9 0.0001813059 0.005885427 0.03082054 0.006796250
          LCI    CP
L  0.02506647 0.964
CL 0.02659501 0.984

$p
   Scenario Method True value          Bias        RMSE          BR          SD
L         4    $L$        0.8 -0.0004375827 0.007920992 -0.05532792 0.007795378
CL        4  $L^c$        0.8 -0.0002077818 0.008222446 -0.02527815 0.008478914
          LCI    CP
L  0.03049504 0.948
CL 0.03316142 0.968

$f
   Scenario Method True value          Bias       RMSE           BR         SD
L         4    $L$          2 -0.0001568759 0.03395492 -0.004620174 0.03596273
CL        4  $L^c$          2  0.0312351597 0.17077802  0.186037320 0.19718257
         LCI    CP
L  0.1408161 0.936
CL 0.7934458 0.956

$N.1
   Scenario Method True value     Bias     RMSE         BR       SD     LCI
L         4    $L$        500 2.172874 16.39432 0.13371787 15.25442  59.228
CL        4  $L^c$        500 0.961354 55.72245 0.01725511 62.48457 254.612
      CP
L  0.924
CL 0.952

