$`p[1]`
   Scenario Method True value          Bias       RMSE            BR         SD
L         8    $L$  0.7798649  2.571443e-04 0.01751244  0.0146851056 0.01707890
CL        8  $L^c$  0.7798649 -1.754063e-05 0.01784223 -0.0009830969 0.01763155
          LCI    CP
L  0.06673399 0.940
CL 0.06891397 0.964

$`p[2]`
   Scenario Method True value         Bias       RMSE         BR         SD
L         8    $L$  0.7789987 -0.002134984 0.01588859 -0.1356019 0.01547470
CL        8  $L^c$  0.7789987 -0.002147537 0.01591296 -0.1362012 0.01579321
          LCI    CP
L  0.06046801 0.936
CL 0.06170163 0.936

$`p[3]`
   Scenario Method True value        Bias       RMSE        BR         SD
L         8    $L$  0.7725395 0.003404781 0.01830147 0.1893442 0.02091217
CL        8  $L^c$  0.7725395 0.047971620 0.05065280 2.9500471 0.10241581
          LCI    CP
L  0.08508192 0.972
CL 0.32976796 1.000

$`phi[1]`
   Scenario Method True value         Bias       RMSE         BR         SD
L         8    $L$  0.8361261 -0.001770007 0.01523371 -0.1169825 0.01549908
CL        8  $L^c$  0.8361261 -0.001740092 0.01529893 -0.1144824 0.01564594
          LCI    CP
L  0.06062683 0.948
CL 0.06113197 0.948

$`phi[2]`
   Scenario Method True value         Bias       RMSE         BR         SD
L         8    $L$  0.8103587 0.0003913422 0.01591235 0.02460105 0.01513981
CL        8  $L^c$  0.8103587 0.0002617394 0.01620061 0.01615825 0.01534195
          LCI    CP
L  0.05917002 0.932
CL 0.06002329 0.936

$`phi[3]`
   Scenario Method True value         Bias       RMSE        BR        SD
L         8    $L$  0.8338272 -0.003334409 0.01998482 -0.169219 0.0229919
CL        8  $L^c$  0.8338272 -0.036798912 0.03999462 -2.349035 0.1012635
          LCI    CP
L  0.09328535 0.976
CL 0.32726104 1.000

$sigma
   Scenario Method True value       Bias      RMSE         BR       SD      LCI
L         8    $L$        100  4.9517997 32.176408  0.1557508 41.65040 144.9875
CL        8  $L^c$        100 -0.7343928  5.596499 -0.1323682 56.95914 186.7786
      CP
L  0.964
CL 1.000

$N.1
   Scenario Method True value      Bias     RMSE         BR       SD     LCI
L         8    $L$        500 -30.07780 96.42379 -0.3283150 105.2839 404.368
CL        8  $L^c$        500 -30.63948 96.36688 -0.3353477 105.0937 427.544
      CP
L  0.888
CL 0.928

$`f[1]`
   Scenario Method True value      Bias     RMSE        BR       SD      LCI
L         8    $L$   2.385978 0.8098716 1.442963 0.6781382 1.408624 5.056085
CL        8  $L^c$   2.385978 0.6671202 1.380569 0.5519382 1.459822 5.454635
      CP
L  0.956
CL 0.940

$`f[2]`
   Scenario Method True value      Bias      RMSE        BR        SD       LCI
L         8    $L$   1.061588 0.0164850 0.1145656 0.1454045 0.1116879 0.4362721
CL        8  $L^c$   1.061588 0.1797222 0.5481788 0.3470342 0.5764428 2.1547295
      CP
L  0.944
CL 0.940

$`f[3]`
   Scenario Method True value        Bias      RMSE         BR        SD
L         8    $L$   3.711387 -0.01662678 0.1532452 -0.1091422 0.1703635
CL        8  $L^c$   3.711387  0.43708247 0.7010492  0.7974300 1.0289444
         LCI    CP
L  0.6693809 0.964
CL 3.7227079 1.000

$`f[4]`
   Scenario Method True value     Bias    RMSE         BR       SD      LCI
L         8    $L$   3.477798 1.933528 2.04809   2.862863 2.019198 5.763003
CL        8  $L^c$   3.477798 1.523043 1.52309 126.867790 2.886218 9.481740
      CP
L  0.876
CL 1.000

